# Blender MTL File: 'None'
# Material Count: 1

newmtl Material.002
Ns 33.333333
Ka 0.000000 0.000000 0.000000
Kd 0.717673 0.717673 0.717673
Ks 1.000000 1.000000 1.000000
Ni 1.000000
d 1.000000
illum 2
